[gd_scene load_steps=6 format=2]

[ext_resource path="res://themes/BoardTracker.tres" type="Theme" id=1]
[ext_resource path="res://scenes/gui/GUI.gd" type="Script" id=2]
[ext_resource path="res://scenes/gui/quickpanel/QuickPanel.tscn" type="PackedScene" id=3]
[ext_resource path="res://scenes/gui/tools/Tools.tscn" type="PackedScene" id=4]
[ext_resource path="res://scenes/gui/pausemenu/Pause.tscn" type="PackedScene" id=5]

[node name="GUI" type="Container" index="0"]
anchor_left = 0.0
anchor_top = 0.0
anchor_right = 1.0
anchor_bottom = 1.0
rect_pivot_offset = Vector2( 0, 0 )
rect_clip_content = false
mouse_filter = 2
mouse_default_cursor_shape = 0
size_flags_horizontal = 3
size_flags_vertical = 3
theme = ExtResource( 1 )
script = ExtResource( 2 )
_sections_unfolded = [ "Anchor", "Margin", "Theme" ]

[node name="QuickPanel" parent="." index="0" instance=ExtResource( 3 )]
color = Color( 0.192157, 0.231373, 0.309804, 1 )

[node name="Tools" parent="." index="1" instance=ExtResource( 4 )]

[node name="FileImage" type="FileDialog" parent="." index="2"]
visible = false
anchor_left = 0.0
anchor_top = 0.0
anchor_right = 0.0
anchor_bottom = 0.0
margin_left = 331.0
margin_top = 69.0
margin_right = 944.0
margin_bottom = 631.0
rect_min_size = Vector2( 200, 70 )
rect_pivot_offset = Vector2( 0, 0 )
rect_clip_content = false
mouse_filter = 0
mouse_default_cursor_shape = 0
size_flags_horizontal = 1
size_flags_vertical = 1
popup_exclusive = true
window_title = "Open an Image"
resizable = true
dialog_hide_on_ok = false
mode_overrides_title = false
mode = 0
access = 0
filters = PoolStringArray( "*.png ; PNG Images", "*.jpg ; JPEG Images" )
show_hidden_files = false
current_dir = "res://"
current_file = ""
current_path = "res://"
_sections_unfolded = [ "Dialog", "Popup" ]

[node name="FileLoadSave" type="FileDialog" parent="." index="3"]
visible = false
anchor_left = 0.0
anchor_top = 0.0
anchor_right = 0.0
anchor_bottom = 0.0
margin_left = 331.0
margin_top = 69.0
margin_right = 944.0
margin_bottom = 631.0
rect_min_size = Vector2( 200, 70 )
rect_pivot_offset = Vector2( 0, 0 )
rect_clip_content = false
mouse_filter = 0
mouse_default_cursor_shape = 0
size_flags_horizontal = 1
size_flags_vertical = 1
popup_exclusive = true
window_title = "Save a token"
resizable = true
dialog_hide_on_ok = false
mode_overrides_title = false
mode = 4
access = 1
filters = PoolStringArray( "*.token ; Preset Token " )
show_hidden_files = false
current_dir = "user://"
current_file = ""
current_path = "user://"
_sections_unfolded = [ "Dialog" ]

[node name="OpenClose" type="Button" parent="." index="4"]
anchor_left = 0.01
anchor_top = 0.93
anchor_right = 0.08
anchor_bottom = 0.98
rect_pivot_offset = Vector2( 0, 0 )
rect_clip_content = false
focus_mode = 2
mouse_filter = 0
mouse_default_cursor_shape = 0
size_flags_horizontal = 1
size_flags_vertical = 1
toggle_mode = false
enabled_focus_mode = 2
shortcut = null
group = null
text = "Close"
flat = false
align = 1
_sections_unfolded = [ "Anchor", "Margin" ]

[node name="Pause" parent="." index="5" instance=ExtResource( 5 )]
visible = false

[connection signal="file_selected" from="FileImage" to="." method="_on_FileImage_file_selected"]
[connection signal="pressed" from="OpenClose" to="." method="_on_OpenClose_pressed"]
